CBEA: Competitive Balances for Taxonomic Enrichment Analysis • CBEA
…
Input sets

CBEA accepts any type of sets, as long as it is in the BiocSet format where the elements in the sets can be matched to taxa names in the data set. The main function will check if these names match.

metab_sets
#> class: BiocSet
#> 
#> es_element():
#> # A tibble: 4,828 × 1
#>   element     
#>   <chr>       
#> 1 OTU_97.10005
#> 2 OTU_97.10053
#> 3 OTU_97.10090
#> # … with 4,825 more rows
#> 
#> es_set():
#> # A tibble: 3 × 1
#>   set        
#>   <chr>      
#> 1 F Anaerobic
#> 2 Aerobic    
#> 3 Anaerobic  
#> 
#> es_elementset() <active>:
#> # A tibble: 4,828 × 2
#>   element      set        
#>   <chr>        <chr>      
#> 1 OTU_97.10005 F Anaerobic
#> 2 OTU_97.10053 F Anaerobic
#> 3 OTU_97.10090 F Anaerobic
#> # … with 4,825 more rows
…
Within each aspect, there is a list of size equivalent to the total number of sets evaluated. For example, the results object is of size 3 representing the evaluated sets.

str(results$R)
#> List of 3
#>  $ Aerobic    : num [1:369] 0.9694 0.0286 0.9953 0.8842 0.5617 ...
#>  $ Anaerobic  : num [1:369] 0.000461 0.58112 0.203075 0.034167 0.088761 ...
#>  $ F Anaerobic: num [1:369] 0.997 0.89 0.303 0.96 0.863 ...

Users can use tidy and glance following the broom to process CBEAout into nice objects. The tidy function returns a tibble of scores (samples by set). The glance function returns some diagnostics. There are two options for the glance function: fit_comparison allows users to compare the l-moments of the data, the permuted data, and the final fitted distribution; fit_diagnostic shows goodness-of-fit statistics of the distribution fitting procedure itself, with log-likelihoods and Anderson-Darling (column “ad”) statistics.

tidy(results)
#> # A tibble: 369 × 4
#>    sample_ids Aerobic Anaerobic F_Anaerobic
#>    <chr>        <dbl>     <dbl>       <dbl>
#>  1 700014427   0.969   0.000461      0.997 
#>  2 700014521   0.0286  0.581         0.890 
#>  3 700014603   0.995   0.203         0.303 
#>  4 700014749   0.884   0.0342        0.960 
#>  5 700014791   0.562   0.0888        0.863 
#>  6 700014917   0.720   0.134         0.898 
#>  7 700014989   0.0249  0.992         0.0462
#>  8 700015076   0.685   0.0698        0.911 
#>  9 700015149   0.402   0.000344      1.00  
#> 10 700015215   0.0976  0.729         0.605 
#> # … with 359 more rows
…
